Playground
…
Playground

Tereza Lausová

24 3 2021

eurostat_overview <- get_eurostat_toc()

education_data <- eurostat_overview[str_detect(string = eurostat_overview$title,pattern = "[Ee]ducation"),] %>%
  tibble() %>%
  filter(type == "dataset")

education_data

## # A tibble: 1,032 x 8
##    title code  type  `last update of~ `last table str~ `data start` `data end`
##    <chr> <chr> <chr> <chr>            <chr>            <chr>        <chr>     
##  1 Popu~ cens~ data~ 01.04.2019       08.02.2021       2011         2011      
##  2 Popu~ cens~ data~ 26.08.2015       08.02.2021       2011         2011      
##  3 Empl~ cens~ data~ 26.03.2009       08.02.2021       2001         2001      
##  4 Popu~ cens~ data~ 26.03.2009       08.02.2021       2001         2001      
##  5 Pupi~ educ~ data~ 23.03.2021       08.02.2021       2013         2019      
##  6 Pupi~ educ~ data~ 23.03.2021       08.02.2021       2013         2019      
##  7 Pupi~ educ~ data~ 23.03.2021       08.02.2021       2013         2019      
##  8 Pupi~ educ~ data~ 23.03.2021       08.02.2021       2013         2019      
##  9 Pupi~ educ~ data~ 23.03.2021       08.02.2021       2013         2019      
## 10 Stud~ educ~ data~ 23.03.2021       08.02.2021       2013         2019      
## # ... with 1,022 more rows, and 1 more variable: values <chr>

## Pupils enrolled in upper secondary education by programme orientation, sex and NUTS2 regions
educ_uoe_enrs06 <- get_eurostat("educ_uoe_enrs06",update_cache = TRUE) %>%
  add_nuts_level()

## Table educ_uoe_enrs06 cached at C:\Users\lau33\AppData\Local\Temp\RtmpYx6hbd/eurostat/educ_uoe_enrs06_date_code_FF.rds

educ_uoe_enrs06

## # A tibble: 23,319 x 7
##    unit  isced11 sex   geo   time       values nuts_level
##    <chr> <chr>   <chr> <chr> <date>      <dbl>      <dbl>
##  1 NR    ED3     F     HU    2019-01-01 198913          0
##  2 NR    ED3     F     HU1   2019-01-01  59858          1
##  3 NR    ED3     F     HU11  2019-01-01  44015          2
##  4 NR    ED3     F     HU12  2019-01-01  15843          2
##  5 NR    ED3     F     HU2   2019-01-01  56725          1
##  6 NR    ED3     F     HU21  2019-01-01  20811          2
##  7 NR    ED3     F     HU22  2019-01-01  19154          2
##  8 NR    ED3     F     HU23  2019-01-01  16760          2
##  9 NR    ED3     F     HU3   2019-01-01  82330          1
## 10 NR    ED3     F     HU31  2019-01-01  22750          2
## # ... with 23,309 more rows
…
